projectReport.Rmd
…
mean(cold$rating)

## [1] 42.09522

mean(hot$rating)

## [1] 56.73771

arrange(cold, rating)

## # A tibble: 74 x 16
##    name  mfr   type  calories protein   fat sodium fiber carbo sugars potass
##    <chr> <chr> <chr>    <dbl>   <dbl> <dbl>  <dbl> <dbl> <dbl>  <dbl>  <dbl>
##  1 Cap'~ Q     C          120       1     2    220     0    12     12     35
##  2 Cinn~ G     C          120       1     3    210     0    13      9     45
##  3 Hone~ Q     C          120       1     2    220     1    12     11     45
##  4 Coun~ G     C          110       1     1    180     0    12     13     65
##  5 Coco~ G     C          110       1     1    180     0    12     13     55
##  6 Gold~ G     C          110       1     1    280     0    15      9     45
##  7 Luck~ G     C          110       2     1    180     0    12     12     55
##  8 Trix  G     C          110       1     1    140     0    13     12     25
##  9 Frui~ P     C          110       1     1    135     0    13     12     25
## 10 Tota~ G     C          140       3     1    190     4    15     14    230
## # ... with 64 more rows, and 5 more variables: vitamins <dbl>, shelf <dbl>,
## #   weight <dbl>, cups <dbl>, rating <dbl>

arrange(hot, rating)

## # A tibble: 3 x 16
##   name  mfr   type  calories protein   fat sodium fiber carbo sugars potass
##   <chr> <chr> <chr>    <dbl>   <dbl> <dbl>  <dbl> <dbl> <dbl>  <dbl>  <dbl>
## 1 Quak~ Q     H          100       5     2      0   2.7    -1     -1    110
## 2 Maypo A     H          100       4     1      0   0      16      3     95
## 3 Crea~ N     H          100       3     0     80   1      21      0     -1
## # ... with 5 more variables: vitamins <dbl>, shelf <dbl>, weight <dbl>,
## #   cups <dbl>, rating <dbl>

arrange(cereal, rating)

## # A tibble: 77 x 16
##    name  mfr   type  calories protein   fat sodium fiber carbo sugars potass
##    <chr> <chr> <chr>    <dbl>   <dbl> <dbl>  <dbl> <dbl> <dbl>  <dbl>  <dbl>
##  1 Cap'~ Q     C          120       1     2    220     0    12     12     35
##  2 Cinn~ G     C          120       1     3    210     0    13      9     45
##  3 Hone~ Q     C          120       1     2    220     1    12     11     45
##  4 Coun~ G     C          110       1     1    180     0    12     13     65
##  5 Coco~ G     C          110       1     1    180     0    12     13     55
##  6 Gold~ G     C          110       1     1    280     0    15      9     45
##  7 Luck~ G     C          110       2     1    180     0    12     12     55
##  8 Trix  G     C          110       1     1    140     0    13     12     25
##  9 Frui~ P     C          110       1     1    135     0    13     12     25
## 10 Tota~ G     C          140       3     1    190     4    15     14    230
## # ... with 67 more rows, and 5 more variables: vitamins <dbl>, shelf <dbl>,
## #   weight <dbl>, cups <dbl>, rating <dbl>
…
